1 999 179
2490 3764 238
5799 2308 238
1943 9840 262
8021 385 262
8779 709 262
2139 4052 238
6729 1417 262
4925 194 238
6303 2987 262
3550 4474 238
649 6481 262
849 5573 238
7832 6122 262
7948 270 262
8999 2184 262
5650 7530 262
1330 8956 262
5066 8076 262
9897 5767 262
2020 2585 209
355 198 144
5584 65 238
8673 5137 262
8859 3599 262
1385 9119 262
6896 1804 262
6950 6214 257
6728 7123 257
7704 4004 262
4333 1292 238
1149 4497 238
3208 372 217
2934 6790 262
848 6528 262
4034 5350 215
1133 1204 182
3315 9612 262
7369 4635 262
1511 9413 262
3364 951 217
1181 8900 262
1982 4315 238
6716 7370 257
2792 9898 262
1345 7306 262
781 5431 238
8090 2958 262
2764 6687 262
3897 22 238
7982 2212 262
7842 395 262
2403 3226 217
4170 5842 236
7784 3997 262
2905 8437 262
1272 9885 262
1604 2303 183
6438 4095 262
4571 3977 215
5877 9571 262
7486 3916 262
5371 3161 238
5167 3438 238
1729 3015 217
7864 7750 221
7731 9602 260
5773 5486 236
1849 9885 262
9251 4672 262
9116 3894 262
2410 9929 262
7155 5111 262
8909 3121 262
5490 2909 238
4767 5898 236
1456 8096 262
4225 6329 262
7755 9521 260
6567 7919 257
5420 3109 238
1669 5167 238
3924 3261 238
371 7488 262
9666 1169 262
6817 1981 262
5668 6842 262
4573 4620 171
3556 4388 238
1462 9233 262
2621 5184 238
8101 1748 262
3304 371 217
7039 4256 262
886 2139 182
6537 4834 262
1894 5719 238
5574 3851 236
3092 6927 262
6157 2389 238
7743 4978 262
1 999999 525
